simulation/qsim/dsdlab5.msim.vcd
$comment
	File created using the following command:
		vcd file dsdlab5.msim.vcd -direction
$end
$date
	Thu Mar 30 21:26:36 2017
$end
$version
	ModelSim Version 10.1d
$end
$timescale
	1ps
$end
$scope module g58_sys_ctrl_fsm_test_vlg_vec_tst $end
$var reg 1 ! clk $end
$var reg 1 " comp_done $end
$var reg 6 # num_cards_comp [5:0] $end
$var reg 6 $ num_cards_deck [5:0] $end
$var reg 6 % num_cards_player [5:0] $end
$var reg 1 & player_done $end
$var reg 1 ' rst $end
$var wire 1 ( comp_turn $end
$var wire 1 ) comp_won $end
$var wire 1 * deal_comp $end
$var wire 1 + deal_player $end
$var wire 1 , player_turn $end
$var wire 1 - player_won $end
$var wire 1 . tie $end
$var wire 1 / sampler $end
$scope module i1 $end
$var wire 1 0 gnd $end
$var wire 1 1 vcc $end
$var wire 1 2 unknown $end
$var tri1 1 3 devclrn $end
$var tri1 1 4 devpor $end
$var tri1 1 5 devoe $end
$var wire 1 6 inst|Equal0~0_combout $end
$var wire 1 7 inst|Equal2~0_combout $end
$var wire 1 8 inst|Equal2~1_combout $end
$var wire 1 9 comp_done~combout $end
$var wire 1 : clk~combout $end
$var wire 1 ; clk~clkctrl_outclk $end
$var wire 1 < inst|LessThan0~0_combout $end
$var wire 1 = inst|state.A~0_combout $end
$var wire 1 > rst~combout $end
$var wire 1 ? rst~clkctrl_outclk $end
$var wire 1 @ inst|state.A~regout $end
$var wire 1 A inst|Selector1~0_combout $end
$var wire 1 B inst|state.B~regout $end
$var wire 1 C inst|Equal1~0_combout $end
$var wire 1 D inst|LessThan1~0_combout $end
$var wire 1 E inst|Equal1~1_combout $end
$var wire 1 F inst|Equal0~1_combout $end
$var wire 1 G player_done~combout $end
$var wire 1 H inst|Selector3~0_combout $end
$var wire 1 I inst|Selector3~1_combout $end
$var wire 1 J inst|state.D~regout $end
$var wire 1 K inst|Selector2~0_combout $end
$var wire 1 L inst|Selector2~1_combout $end
$var wire 1 M inst|Selector2~2_combout $end
$var wire 1 N inst|state.C~regout $end
$var wire 1 O inst|Selector4~0_combout $end
$var wire 1 P inst|state.X~regout $end
$var wire 1 Q inst|Selector5~0_combout $end
$var wire 1 R inst|Selector5~1_combout $end
$var wire 1 S inst|state.Y~regout $end
$var wire 1 T inst|Selector6~0_combout $end
$var wire 1 U inst|state.W~regout $end
$var wire 1 V num_cards_deck~combout [5] $end
$var wire 1 W num_cards_deck~combout [4] $end
$var wire 1 X num_cards_deck~combout [3] $end
$var wire 1 Y num_cards_deck~combout [2] $end
$var wire 1 Z num_cards_deck~combout [1] $end
$var wire 1 [ num_cards_deck~combout [0] $end
$var wire 1 \ num_cards_comp~combout [5] $end
$var wire 1 ] num_cards_comp~combout [4] $end
$var wire 1 ^ num_cards_comp~combout [3] $end
$var wire 1 _ num_cards_comp~combout [2] $end
$var wire 1 ` num_cards_comp~combout [1] $end
$var wire 1 a num_cards_comp~combout [0] $end
$var wire 1 b num_cards_player~combout [5] $end
$var wire 1 c num_cards_player~combout [4] $end
$var wire 1 d num_cards_player~combout [3] $end
$var wire 1 e num_cards_player~combout [2] $end
$var wire 1 f num_cards_player~combout [1] $end
$var wire 1 g num_cards_player~combout [0] $end
$upscope $end
$upscope $end
$enddefinitions $end
#0
$dumpvars
0!
0"
b1000 #
b1000 $
b1000 %
0&
0'
0(
0)
0*
1+
0,
0-
0.
x/
00
11
x2
13
14
15
06
07
08
09
0:
0;
0<
1=
0>
0?
0@
1A
0B
0C
0D
0E
0F
0G
0H
0I
0J
0K
0L
0M
0N
0O
0P
0Q
0R
0S
0T
0U
0[
0Z
0Y
1X
0W
0V
0a
0`
0_
1^
0]
0\
0g
0f
0e
1d
0c
0b
$end
#10000
1!
1:
1;
0/
1B
1@
1M
0A
1*
0+
#20000
1'
0!
1>
0:
0;
1?
1/
0B
0@
0M
1A
0*
1+
#30000
1!
1:
1;
0/
#40000
0'
0!
0>
0:
0;
0?
1/
#50000
1!
1:
1;
0/
1B
1@
1M
0A
1*
0+
#60000
0!
0:
0;
1/
#70000
1!
1:
1;
0/
1N
0B
1Q
1K
0M
1,
0*
1L
1M
#80000
0!
0:
0;
1/
#90000
1!
1:
1;
0/
#100000
0!
0:
0;
1/
#110000
1&
b0 %
b100 %
b110 %
b111 %
1!
1G
1g
1f
1e
0d
1:
1;
0/
0K
1H
16
0L
1I
0M
#120000
0!
0:
0;
1/
#130000
0&
1!
0G
1:
1;
0/
1K
0H
1L
0I
1M
0N
1J
0K
1H
0,
1(
0L
1I
0M
#140000
0!
0:
0;
1/
#150000
1!
1:
1;
0/
#160000
1"
0!
19
0:
0;
1/
1K
0H
1L
0I
1M
#170000
1!
1:
1;
0/
1N
0J
1,
0(
#180000
0"
0!
09
0:
0;
1/
#190000
1!
1:
1;
0/
#200000
0!
0:
0;
1/
#210000
b110 %
1&
1!
0g
1G
1:
1;
0/
1<
0K
1H
0L
1I
0M
#220000
0!
0:
0;
1/
#230000
0&
1!
0G
1:
1;
0/
1K
0H
1L
0I
1M
0N
1J
0K
1H
0,
1(
0L
1I
0M
#240000
0!
0:
0;
1/
#250000
1!
1:
1;
0/
#260000
1"
0!
19
0:
0;
1/
1K
0H
1L
0I
1M
#270000
1!
1:
1;
0/
1N
0J
1,
0(
#280000
0"
0!
09
0:
0;
1/
#290000
1!
1:
1;
0/
#300000
0!
0:
0;
1/
#310000
1!
1:
1;
0/
#320000
0!
0:
0;
1/
#330000
1!
1:
1;
0/
#340000
0!
0:
0;
1/
#350000
1!
1:
1;
0/
#360000
0!
0:
0;
1/
#370000
1!
1:
1;
0/
#380000
0!
0:
0;
1/
#390000
1!
1:
1;
0/
#400000
0!
0:
0;
1/
#410000
1!
1:
1;
0/
#420000
0!
0:
0;
1/
#430000
1!
1:
1;
0/
#440000
0!
0:
0;
1/
#450000
1!
1:
1;
0/
#460000
0!
0:
0;
1/
#470000
1!
1:
1;
0/
#480000
0!
0:
0;
1/
#490000
1!
1:
1;
0/
#500000
0!
0:
0;
1/
#510000
1!
1:
1;
0/
#520000
0!
0:
0;
1/
#530000
1!
1:
1;
0/
#540000
0!
0:
0;
1/
#550000
1!
1:
1;
0/
#560000
0!
0:
0;
1/
#570000
1!
1:
1;
0/
#580000
0!
0:
0;
1/
#590000
1!
1:
1;
0/
#600000
0!
0:
0;
1/
#610000
1!
1:
1;
0/
#620000
0!
0:
0;
1/
#630000
1!
1:
1;
0/
#640000
0!
0:
0;
1/
#650000
1!
1:
1;
0/
#660000
0!
0:
0;
1/
#670000
1!
1:
1;
0/
#680000
0!
0:
0;
1/
#690000
1!
1:
1;
0/
#700000
0!
0:
0;
1/
#710000
1!
1:
1;
0/
#720000
0!
0:
0;
1/
#730000
1!
1:
1;
0/
#740000
0!
0:
0;
1/
#750000
1!
1:
1;
0/
#760000
0!
0:
0;
1/
#770000
1!
1:
1;
0/
#780000
0!
0:
0;
1/
#790000
1!
1:
1;
0/
#800000
0!
0:
0;
1/
#810000
1!
1:
1;
0/
#820000
0!
0:
0;
1/
#830000
1!
1:
1;
0/
#840000
0!
0:
0;
1/
#850000
1!
1:
1;
0/
#860000
0!
0:
0;
1/
#870000
1!
1:
1;
0/
#880000
0!
0:
0;
1/
#890000
1!
1:
1;
0/
#900000
0!
0:
0;
1/
#910000
1!
1:
1;
0/
#920000
0!
0:
0;
1/
#930000
1!
1:
1;
0/
#940000
0!
0:
0;
1/
#950000
1!
1:
1;
0/
#960000
0!
0:
0;
1/
#970000
1!
1:
1;
0/
#980000
0!
0:
0;
1/
#990000
b1001 #
1!
1a
1:
1;
0/
