simulation/qsim/dsdlab5.msim.vcd
$comment
	File created using the following command:
		vcd file dsdlab5.msim.vcd -direction
$end
$date
	Fri Mar 31 15:57:42 2017
$end
$version
	ModelSim Version 10.1d
$end
$timescale
	1ps
$end
$scope module g58_sys_ctrl_fsm_test_vlg_vec_tst $end
$var reg 1 ! clk $end
$var reg 1 " comp_done $end
$var reg 6 # num_cards_comp [5:0] $end
$var reg 6 $ num_cards_deck [5:0] $end
$var reg 6 % num_cards_player [5:0] $end
$var reg 1 & player_done $end
$var reg 1 ' rst $end
$var wire 1 ( comp_turn $end
$var wire 1 ) comp_won $end
$var wire 1 * deal_comp $end
$var wire 1 + deal_player $end
$var wire 1 , player_turn $end
$var wire 1 - player_won $end
$var wire 1 . tie $end
$var wire 1 / sampler $end
$scope module i1 $end
$var wire 1 0 gnd $end
$var wire 1 1 vcc $end
$var wire 1 2 unknown $end
$var tri1 1 3 devclrn $end
$var tri1 1 4 devpor $end
$var tri1 1 5 devoe $end
$var wire 1 6 inst|Equal0~0_combout $end
$var wire 1 7 inst|Equal1~0_combout $end
$var wire 1 8 inst|Selector2~0_combout $end
$var wire 1 9 inst|Equal2~0_combout $end
$var wire 1 : inst|Selector2~1_combout $end
$var wire 1 ; inst|Selector3~0_combout $end
$var wire 1 < comp_done~combout $end
$var wire 1 = player_done~combout $end
$var wire 1 > clk~combout $end
$var wire 1 ? inst|LessThan0~0_combout $end
$var wire 1 @ inst|state.A~0_combout $end
$var wire 1 A rst~combout $end
$var wire 1 B inst|state.A~regout $end
$var wire 1 C inst|LessThan1~0_combout $end
$var wire 1 D inst|Selector1~0_combout $end
$var wire 1 E inst|state.B~regout $end
$var wire 1 F inst|Selector2~2_combout $end
$var wire 1 G inst|state.C~regout $end
$var wire 1 H inst|Equal2~1_combout $end
$var wire 1 I inst|Equal0~1_combout $end
$var wire 1 J inst|Equal1~1_combout $end
$var wire 1 K inst|Selector3~1_combout $end
$var wire 1 L inst|state.D~regout $end
$var wire 1 M inst|Selector4~0_combout $end
$var wire 1 N inst|state.X~regout $end
$var wire 1 O inst|Selector5~0_combout $end
$var wire 1 P inst|Selector5~1_combout $end
$var wire 1 Q inst|state.Y~regout $end
$var wire 1 R inst|Selector6~0_combout $end
$var wire 1 S inst|state.W~regout $end
$var wire 1 T num_cards_comp~combout [5] $end
$var wire 1 U num_cards_comp~combout [4] $end
$var wire 1 V num_cards_comp~combout [3] $end
$var wire 1 W num_cards_comp~combout [2] $end
$var wire 1 X num_cards_comp~combout [1] $end
$var wire 1 Y num_cards_comp~combout [0] $end
$var wire 1 Z num_cards_player~combout [5] $end
$var wire 1 [ num_cards_player~combout [4] $end
$var wire 1 \ num_cards_player~combout [3] $end
$var wire 1 ] num_cards_player~combout [2] $end
$var wire 1 ^ num_cards_player~combout [1] $end
$var wire 1 _ num_cards_player~combout [0] $end
$var wire 1 ` num_cards_deck~combout [5] $end
$var wire 1 a num_cards_deck~combout [4] $end
$var wire 1 b num_cards_deck~combout [3] $end
$var wire 1 c num_cards_deck~combout [2] $end
$var wire 1 d num_cards_deck~combout [1] $end
$var wire 1 e num_cards_deck~combout [0] $end
$upscope $end
$upscope $end
$enddefinitions $end
#0
$dumpvars
0!
0"
b1000 #
b1000 $
b1000 %
0&
0'
0(
0)
0*
1+
0,
0-
0.
x/
00
11
x2
13
14
15
06
07
08
09
0:
0;
0<
0=
0>
0?
1@
0A
0B
0C
1D
0E
0F
0G
0H
0I
0J
0K
0L
0M
0N
0O
0P
0Q
0R
0S
0Y
0X
0W
1V
0U
0T
0_
0^
0]
1\
0[
0Z
0e
0d
0c
1b
0a
0`
$end
#10000
1!
1>
0/
1E
1B
1F
0D
1*
0+
#20000
1'
0!
1A
0>
1/
0E
0B
0F
1D
0*
1+
#30000
1!
1>
0/
#40000
0'
0!
0A
0>
1/
#50000
1!
1>
0/
1E
1B
1F
0D
1*
0+
#60000
0!
0>
1/
#70000
1!
1>
0/
1G
0E
1O
18
0F
1,
0*
1:
1F
#80000
0!
0>
1/
#90000
1!
1>
0/
#100000
0!
0>
1/
#110000
1&
b0 %
b100 %
b110 %
b111 %
1!
1=
1_
1^
1]
0\
1>
0/
1;
08
16
1K
0:
0F
#120000
0!
0>
1/
#130000
0&
1!
0=
1>
0/
0;
18
0K
1:
1F
1L
0G
1;
08
1(
0,
1K
0:
0F
#140000
0!
0>
1/
#150000
1!
1>
0/
#160000
1"
0!
1<
0>
1/
0;
18
0K
1:
1F
#170000
1!
1>
0/
0L
1G
0(
1,
#180000
0"
0!
0<
0>
1/
#190000
1!
1>
0/
#200000
0!
0>
1/
#210000
b110 %
1&
1!
0_
1=
1>
0/
1?
1;
08
1K
0:
0F
#220000
0!
0>
1/
#230000
0&
1!
0=
1>
0/
0;
18
0K
1:
1F
1L
0G
1;
08
1(
0,
1K
0:
0F
#240000
0!
0>
1/
#250000
1!
1>
0/
#260000
1"
0!
1<
0>
1/
0;
18
0K
1:
1F
#270000
1!
1>
0/
0L
1G
0(
1,
#280000
0"
0!
0<
0>
1/
#290000
1!
1>
0/
#300000
0!
0>
1/
#310000
1!
1>
0/
#320000
0!
0>
1/
#330000
1!
1>
0/
#340000
0!
0>
1/
#350000
1!
1>
0/
#360000
0!
0>
1/
#370000
1!
1>
0/
#380000
0!
0>
1/
#390000
1!
1>
0/
#400000
0!
0>
1/
#410000
1!
1>
0/
#420000
0!
0>
1/
#430000
1!
1>
0/
#440000
0!
0>
1/
#450000
1!
1>
0/
#460000
0!
0>
1/
#470000
1!
1>
0/
#480000
0!
0>
1/
#490000
1!
1>
0/
#500000
0!
0>
1/
#510000
1!
1>
0/
#520000
0!
0>
1/
#530000
1!
1>
0/
#540000
0!
0>
1/
#550000
1!
1>
0/
#560000
0!
0>
1/
#570000
1!
1>
0/
#580000
0!
0>
1/
#590000
1!
1>
0/
#600000
0!
0>
1/
#610000
1!
1>
0/
#620000
0!
0>
1/
#630000
1!
1>
0/
#640000
0!
0>
1/
#650000
1!
1>
0/
#660000
0!
0>
1/
#670000
1!
1>
0/
#680000
0!
0>
1/
#690000
1!
1>
0/
#700000
0!
0>
1/
#710000
1!
1>
0/
#720000
0!
0>
1/
#730000
1!
1>
0/
#740000
0!
0>
1/
#750000
1!
1>
0/
#760000
0!
0>
1/
#770000
1!
1>
0/
#780000
0!
0>
1/
#790000
1!
1>
0/
#800000
0!
0>
1/
#810000
1!
1>
0/
#820000
0!
0>
1/
#830000
1!
1>
0/
#840000
0!
0>
1/
#850000
1!
1>
0/
#860000
0!
0>
1/
#870000
1!
1>
0/
#880000
0!
0>
1/
#890000
1!
1>
0/
#900000
0!
0>
1/
#910000
1!
1>
0/
#920000
0!
0>
1/
#930000
1!
1>
0/
#940000
0!
0>
1/
#950000
1!
1>
0/
#960000
0!
0>
1/
#970000
1!
1>
0/
#980000
0!
0>
1/
#990000
b1001 #
1!
1Y
1>
0/
